{
  "latestVersion": "1.4.5",
  "latestVersionCode": "145",
  "url": "https://gitlab.com/asdoi/GymWen/blob/master/releases/GymWenApp.apk",
  "releaseNotes": [
    "- See: https://gitlab.com/asdoi/GymWen/-/releases"
  ]
}

